<?xml version="1.0" encoding="UTF-8"?>
<testng-results ignored="0" total="5" passed="5" failed="0" skipped="0">
  <reporter-output>
  </reporter-output>
  <suite started-at="2020-09-20T17:05:53 CEST" name="Pet Store API tests" finished-at="2020-09-20T17:05:59 CEST" duration-ms="5655">
    <groups>
    </groups>
    <test started-at="2020-09-20T17:05:53 CEST" name="Pet API tests" finished-at="2020-09-20T17:05:59 CEST" duration-ms="5655">
      <class name="com.petstore.PetTests">
        <test-method is-config="true" signature="beforeClass()[pri:0, instance:com.petstore.PetTests@3439f68d]" started-at="2020-09-20T17:05:53 CEST" name="beforeClass" finished-at="2020-09-20T17:05:53 CEST" duration-ms="445" status="PASS">
          <reporter-output>
          </reporter-output>
        </test-method> <!-- beforeClass -->
        <test-method signature="addNewPet()[pri:0, instance:com.petstore.PetTests@3439f68d]" started-at="2020-09-20T17:05:53 CEST" name="addNewPet" finished-at="2020-09-20T17:05:55 CEST" duration-ms="1754" status="PASS">
          <reporter-output>
          </reporter-output>
        </test-method> <!-- addNewPet -->
        <test-method signature="verifyNewPet()[pri:1, instance:com.petstore.PetTests@3439f68d]" started-at="2020-09-20T17:05:55 CEST" name="verifyNewPet" finished-at="2020-09-20T17:05:56 CEST" duration-ms="701" status="PASS">
          <reporter-output>
          </reporter-output>
        </test-method> <!-- verifyNewPet -->
        <test-method signature="updatePet()[pri:2, instance:com.petstore.PetTests@3439f68d]" started-at="2020-09-20T17:05:56 CEST" name="updatePet" finished-at="2020-09-20T17:05:57 CEST" duration-ms="708" status="PASS">
          <reporter-output>
          </reporter-output>
        </test-method> <!-- updatePet -->
        <test-method signature="verifyUpdatedPet()[pri:3, instance:com.petstore.PetTests@3439f68d]" started-at="2020-09-20T17:05:57 CEST" name="verifyUpdatedPet" finished-at="2020-09-20T17:05:57 CEST" duration-ms="675" status="PASS">
          <reporter-output>
          </reporter-output>
        </test-method> <!-- verifyUpdatedPet -->
        <test-method signature="deletePetAndDoCheck()[pri:4, instance:com.petstore.PetTests@3439f68d]" started-at="2020-09-20T17:05:57 CEST" name="deletePetAndDoCheck" finished-at="2020-09-20T17:05:59 CEST" duration-ms="1347" status="PASS">
          <reporter-output>
          </reporter-output>
        </test-method> <!-- deletePetAndDoCheck -->
      </class> <!-- com.petstore.PetTests -->
    </test> <!-- Pet API tests -->
  </suite> <!-- Pet Store API tests -->
</testng-results>
