com/petstore/controllers/PetsController.class
com/petstore/domain/Pet$Builder.class
com/petstore/domain/Status.class
com/petstore/domain/Tag.class
com/petstore/domain/Pet$1.class
com/petstore/Constants.class
com/petstore/domain/Pet.class
com/petstore/domain/Category.class
